{
   "agent": "Tungstenite",
   "behavior": "OK",
   "behaviorClose": "OK",
   "case": 162,
   "closedByMe": false,
   "createStats": true,
   "createWirelog": true,
   "description": "Send a text message with payload which is not valid UTF-8 in one fragment.<br><br>Payload: 0xeda080edbfbf",
   "droppedByMe": true,
   "duration": 1,
   "expectation": "The connection is failed immediately, since the payload is not valid UTF-8.",
   "expected": {
      "OK": []
   },
   "expectedClose": {
      "closeCode": [
         1007
      ],
      "closedByMe": false,
      "closedByWrongEndpointIsFatal": true,
      "requireClean": false
   },
   "failedByMe": false,
   "httpRequest": "GET /runCase?case=162&agent=Tungstenite HTTP/1.1\r\nUpgrade: websocket\r\nHost: localhost:9001\r\nConnection: Upgrade\r\nSec-WebSocket-Key: Kzx9qzzBxps1xNygdRmSzg==\r\nSec-WebSocket-Version: 13\r\n\r\n",
   "httpResponse": "HTTP/1.1 101 Switching Protocols\r\nServer: AutobahnTestSuite/0.8.2-0.10.9\r\nX-Powered-By: AutobahnPython/0.10.9\r\nUpgrade: WebSocket\r\nConnection: Upgrade\r\nSec-WebSocket-Accept: 2FNdM4qU43flwTUiSxNusFyv2Bg=\r\n\r\n",
   "id": "6.21.2",
   "isServer": true,
   "localCloseCode": 1000,
   "localCloseReason": null,
   "received": [],
   "remoteCloseCode": 1007,
   "remoteCloseReason": null,
   "reportCompressionRatio": false,
   "reportTime": false,
   "result": "Actual events match at least one expected.",
   "resultClose": "Connection was properly closed",
   "rxFrameStats": {
      "8": 1
   },
   "rxOctetStats": {
      "8": 1,
      "187": 1
   },
   "started": "2023-08-12T06:26:55.719Z",
   "trafficStats": null,
   "txFrameStats": {
      "1": 1,
      "8": 1
   },
   "txOctetStats": {
      "4": 1,
      "8": 1,
      "206": 1
   },
   "wasClean": true,
   "wasCloseHandshakeTimeout": false,
   "wasNotCleanReason": null,
   "wasOpenHandshakeTimeout": false,
   "wasServerConnectionDropTimeout": false,
   "wirelog": [
      [
         "RO",
         [
            187,
            "474554202f72756e436173653f636173653d313632266167656e743d54756e677374656e69746520485454502f312e310d0a557067726164653a20776562736f ..."
         ]
      ],
      [
         "TO",
         [
            206,
            "485454502f312e312031303120537769746368696e672050726f746f636f6c730d0a5365727665723a204175746f6261686e5465737453756974652f302e382e ..."
         ],
         false
      ],
      [
         "TF",
         [
            6,
            "\ud800\udfff"
         ],
         1,
         true,
         0,
         null,
         null,
         null,
         false
      ],
      [
         "TO",
         [
            8,
            "8106eda080edbfbf"
         ],
         false
      ],
      [
         "KL",
         0.5
      ],
      [
         "RO",
         [
            8,
            "88823b2d70a038c2"
         ]
      ],
      [
         "RF",
         [
            2,
            "0x03ef"
         ],
         8,
         true,
         0,
         true,
         "3b2d70a0"
      ],
      [
         "TF",
         [
            2,
            "0x03e8"
         ],
         8,
         true,
         0,
         null,
         null,
         null,
         false
      ],
      [
         "TO",
         [
            4,
            "880203e8"
         ],
         false
      ]
   ]
}