{
   "agent": "Tungstenite",
   "behavior": "OK",
   "behaviorClose": "OK",
   "case": 59,
   "closedByMe": false,
   "createStats": true,
   "createWirelog": true,
   "description": "Send text Message fragmented into 2 fragments, then Continuation Frame with FIN = false where there is nothing to continue, then unfragmented Text Message, all sent in one chop.",
   "droppedByMe": true,
   "duration": 1,
   "expectation": "The connection is failed immediately, since there is no message to continue.",
   "expected": {
      "NON-STRICT": [],
      "OK": [
         [
            "message",
            "fragment1fragment2",
            false
         ]
      ]
   },
   "expectedClose": {
      "closeCode": [
         1002
      ],
      "closedByMe": false,
      "requireClean": false
   },
   "failedByMe": false,
   "httpRequest": "GET /runCase?case=59&agent=Tungstenite HTTP/1.1\r\nUpgrade: websocket\r\nHost: localhost:9001\r\nConnection: Upgrade\r\nSec-WebSocket-Key: MhZcr4lZ/7hhDst8xPPj3Q==\r\nSec-WebSocket-Version: 13\r\n\r\n",
   "httpResponse": "HTTP/1.1 101 Switching Protocols\r\nServer: AutobahnTestSuite/0.8.2-0.10.9\r\nX-Powered-By: AutobahnPython/0.10.9\r\nUpgrade: WebSocket\r\nConnection: Upgrade\r\nSec-WebSocket-Accept: ZQKslHurvzVE7Fy6jY5vKTZOosM=\r\n\r\n",
   "id": "5.15",
   "isServer": true,
   "localCloseCode": 1000,
   "localCloseReason": null,
   "received": [
      [
         "message",
         "fragment1fragment2",
         false
      ]
   ],
   "remoteCloseCode": 1002,
   "remoteCloseReason": null,
   "reportCompressionRatio": false,
   "reportTime": false,
   "result": "Actual events match at least one expected.",
   "resultClose": "Connection was properly closed",
   "rxFrameStats": {
      "1": 1,
      "8": 1
   },
   "rxOctetStats": {
      "8": 1,
      "24": 1,
      "186": 1
   },
   "started": "2023-08-12T06:26:45.470Z",
   "trafficStats": null,
   "txFrameStats": {
      "0": 2,
      "1": 2,
      "8": 1
   },
   "txOctetStats": {
      "4": 1,
      "11": 4,
      "206": 1
   },
   "wasClean": true,
   "wasCloseHandshakeTimeout": false,
   "wasNotCleanReason": null,
   "wasOpenHandshakeTimeout": false,
   "wasServerConnectionDropTimeout": false,
   "wirelog": [
      [
         "RO",
         [
            186,
            "474554202f72756e436173653f636173653d3539266167656e743d54756e677374656e69746520485454502f312e310d0a557067726164653a20776562736f63 ..."
         ]
      ],
      [
         "TO",
         [
            206,
            "485454502f312e312031303120537769746368696e672050726f746f636f6c730d0a5365727665723a204175746f6261686e5465737453756974652f302e382e ..."
         ],
         false
      ],
      [
         "TF",
         [
            9,
            "fragment1"
         ],
         1,
         false,
         0,
         null,
         null,
         null,
         false
      ],
      [
         "TO",
         [
            11,
            "0109667261676d656e7431"
         ],
         false
      ],
      [
         "TF",
         [
            9,
            "fragment2"
         ],
         0,
         true,
         0,
         null,
         null,
         null,
         false
      ],
      [
         "TO",
         [
            11,
            "8009667261676d656e7432"
         ],
         false
      ],
      [
         "TF",
         [
            9,
            "fragment3"
         ],
         0,
         false,
         0,
         null,
         null,
         null,
         false
      ],
      [
         "TO",
         [
            11,
            "0009667261676d656e7433"
         ],
         false
      ],
      [
         "TF",
         [
            9,
            "fragment4"
         ],
         1,
         true,
         0,
         null,
         null,
         null,
         false
      ],
      [
         "TO",
         [
            11,
            "8109667261676d656e7434"
         ],
         false
      ],
      [
         "KL",
         1
      ],
      [
         "RO",
         [
            24,
            "81922c3528b34a4749d4415046c71d535ad24b584ddd5807"
         ]
      ],
      [
         "RF",
         [
            18,
            "fragment1fragment2"
         ],
         1,
         true,
         0,
         true,
         "2c3528b3"
      ],
      [
         "RO",
         [
            8,
            "888206899be90563"
         ]
      ],
      [
         "RF",
         [
            2,
            "0x03ea"
         ],
         8,
         true,
         0,
         true,
         "06899be9"
      ],
      [
         "TF",
         [
            2,
            "0x03e8"
         ],
         8,
         true,
         0,
         null,
         null,
         null,
         false
      ],
      [
         "TO",
         [
            4,
            "880203e8"
         ],
         false
      ]
   ]
}