{
   "agent": "Tungstenite",
   "behavior": "OK",
   "behaviorClose": "OK",
   "case": 292,
   "closedByMe": true,
   "createStats": true,
   "createWirelog": true,
   "description": "Send 1000 text messages of payload size 256 to measure implementation/network RTT (round trip time) / latency.",
   "droppedByMe": true,
   "duration": 86,
   "expectation": "Receive echo'ed text messages (with payload as sent). Timeout case after 120 secs.",
   "expected": {},
   "expectedClose": {
      "closeCode": [
         1000
      ],
      "closedByMe": true,
      "requireClean": true
   },
   "failedByMe": false,
   "httpRequest": "GET /runCase?case=292&agent=Tungstenite HTTP/1.1\r\nUpgrade: websocket\r\nHost: localhost:9001\r\nConnection: Upgrade\r\nSec-WebSocket-Key: TpMj6R+1TKxZDDoIfvuahw==\r\nSec-WebSocket-Version: 13\r\n\r\n",
   "httpResponse": "HTTP/1.1 101 Switching Protocols\r\nServer: AutobahnTestSuite/0.8.2-0.10.9\r\nX-Powered-By: AutobahnPython/0.10.9\r\nUpgrade: WebSocket\r\nConnection: Upgrade\r\nSec-WebSocket-Accept: lFONxkr22ULaxhJaE3WSZSDF+iE=\r\n\r\n",
   "id": "9.7.4",
   "isServer": true,
   "localCloseCode": 1000,
   "localCloseReason": null,
   "received": [],
   "remoteCloseCode": null,
   "remoteCloseReason": null,
   "reportCompressionRatio": false,
   "reportTime": true,
   "result": "Ok, received all echo'ed messages in time.",
   "resultClose": "Connection was properly closed",
   "rxFrameStats": {
      "1": 1000,
      "8": 1
   },
   "rxOctetStats": {
      "6": 1,
      "187": 1,
      "264": 1000
   },
   "started": "2023-08-12T06:27:02.519Z",
   "trafficStats": null,
   "txFrameStats": {
      "1": 1000,
      "8": 1
   },
   "txOctetStats": {
      "4": 1,
      "206": 1,
      "260": 1000
   },
   "wasClean": true,
   "wasCloseHandshakeTimeout": false,
   "wasNotCleanReason": null,
   "wasOpenHandshakeTimeout": false,
   "wasServerConnectionDropTimeout": false,
   "wirelog": [
      [
         "RO",
         [
            187,
            "474554202f72756e436173653f636173653d323932266167656e743d54756e677374656e69746520485454502f312e310d0a557067726164653a20776562736f ..."
         ]
      ],
      [
         "TO",
         [
            206,
            "485454502f312e312031303120537769746368696e672050726f746f636f6c730d0a5365727665723a204175746f6261686e5465737453756974652f302e382e ..."
         ],
         false
      ],
      [
         "WLM",
         false
      ],
      [
         "TI",
         120
      ],
      [
         "WLM",
         true
      ],
      [
         "TF",
         [
            2,
            "0x03e8"
         ],
         8,
         true,
         0,
         null,
         null,
         null,
         false
      ],
      [
         "TO",
         [
            4,
            "880203e8"
         ],
         false
      ],
      [
         "RO",
         [
            6,
            "88808a3ef5c2"
         ]
      ],
      [
         "RF",
         [
            0,
            ""
         ],
         8,
         true,
         0,
         true,
         "8a3ef5c2"
      ]
   ]
}