{
   "agent": "Tungstenite",
   "behavior": "OK",
   "behaviorClose": "OK",
   "case": 199,
   "closedByMe": true,
   "createStats": true,
   "createWirelog": true,
   "description": "Send a text message with payload which is valid UTF-8 in one fragment.<br><br>Payload: 0xf3bfbfbe",
   "droppedByMe": false,
   "duration": 1,
   "expectation": "The message is echo'ed back to us.",
   "expected": {
      "OK": [
         [
            "message",
            "\udbbf\udffe",
            false
         ]
      ]
   },
   "expectedClose": {
      "closeCode": [
         1000
      ],
      "closedByMe": true,
      "requireClean": true
   },
   "failedByMe": false,
   "httpRequest": "GET / HTTP/1.1\r\nUser-Agent: AutobahnTestSuite/0.8.2-0.10.9\r\nHost: 127.0.0.1:9002\r\nUpgrade: WebSocket\r\nConnection: Upgrade\r\nPragma: no-cache\r\nCache-Control: no-cache\r\nSec-WebSocket-Key: 75R5wSEsw34jRJmxmCAA2A==\r\nSec-WebSocket-Version: 13\r\n\r\n",
   "httpResponse": "HTTP/1.1 101 Switching Protocols\r\nUpgrade: websocket\r\nConnection: Upgrade\r\nSec-WebSocket-Accept: UcC9+1RgFxp1KIAGbkMk5JPUE9s=\r\n\r\n",
   "id": "6.22.31",
   "isServer": false,
   "localCloseCode": 1000,
   "localCloseReason": null,
   "received": [
      [
         "message",
         "\udbbf\udffe",
         false
      ]
   ],
   "remoteCloseCode": null,
   "remoteCloseReason": null,
   "reportCompressionRatio": false,
   "reportTime": false,
   "result": "Actual events match at least one expected.",
   "resultClose": "Connection was properly closed",
   "rxFrameStats": {
      "1": 1,
      "8": 1
   },
   "rxOctetStats": {
      "2": 1,
      "6": 1,
      "129": 1
   },
   "started": "2023-08-16T08:59:18.646Z",
   "trafficStats": null,
   "txFrameStats": {
      "1": 1,
      "8": 1
   },
   "txOctetStats": {
      "8": 1,
      "10": 1,
      "240": 1
   },
   "wasClean": true,
   "wasCloseHandshakeTimeout": false,
   "wasNotCleanReason": null,
   "wasOpenHandshakeTimeout": false,
   "wasServerConnectionDropTimeout": false,
   "wirelog": [
      [
         "TO",
         [
            240,
            "474554202f20485454502f312e310d0a557365722d4167656e743a204175746f6261686e5465737453756974652f302e382e322d302e31302e390d0a486f7374 ..."
         ],
         false
      ],
      [
         "RO",
         [
            129,
            "485454502f312e312031303120537769746368696e672050726f746f636f6c730d0a557067726164653a20776562736f636b65740d0a436f6e6e656374696f6e ..."
         ]
      ],
      [
         "TF",
         [
            4,
            "\udbbf\udffe"
         ],
         1,
         true,
         0,
         "dab878ad",
         null,
         null,
         false
      ],
      [
         "TO",
         [
            10,
            "8184dab878ad2907c713"
         ],
         false
      ],
      [
         "KL",
         0.5
      ],
      [
         "RO",
         [
            6,
            "8104f3bfbfbe"
         ]
      ],
      [
         "RF",
         [
            4,
            "\udbbf\udffe"
         ],
         1,
         true,
         0,
         false,
         null
      ],
      [
         "TF",
         [
            2,
            "0x03e8"
         ],
         8,
         true,
         0,
         "a1ec54b3",
         null,
         null,
         false
      ],
      [
         "TO",
         [
            8,
            "8882a1ec54b3a204"
         ],
         false
      ],
      [
         "RO",
         [
            2,
            "8800"
         ]
      ],
      [
         "RF",
         [
            0,
            ""
         ],
         8,
         true,
         0,
         false,
         null
      ]
   ]
}