{
   "agent": "Tungstenite",
   "behavior": "OK",
   "behaviorClose": "OK",
   "case": 237,
   "closedByMe": true,
   "createStats": true,
   "createWirelog": true,
   "description": "Send close with invalid close code 999",
   "droppedByMe": false,
   "duration": 0,
   "expectation": "Clean close with protocol error code or drop TCP",
   "expected": {
      "OK": []
   },
   "expectedClose": {
      "closeCode": [
         1002
      ],
      "closedByMe": true,
      "requireClean": false
   },
   "failedByMe": false,
   "httpRequest": "GET / HTTP/1.1\r\nUser-Agent: AutobahnTestSuite/0.8.2-0.10.9\r\nHost: 127.0.0.1:9002\r\nUpgrade: WebSocket\r\nConnection: Upgrade\r\nPragma: no-cache\r\nCache-Control: no-cache\r\nSec-WebSocket-Key: RvB53s+awQm6GgLENxudQQ==\r\nSec-WebSocket-Version: 13\r\n\r\n",
   "httpResponse": "HTTP/1.1 101 Switching Protocols\r\nUpgrade: websocket\r\nConnection: Upgrade\r\nSec-WebSocket-Accept: fh9qEX4XRFPETMo4w4MLPvwc+O0=\r\n\r\n",
   "id": "7.9.2",
   "isServer": false,
   "localCloseCode": 999,
   "localCloseReason": null,
   "received": [],
   "remoteCloseCode": null,
   "remoteCloseReason": null,
   "reportCompressionRatio": false,
   "reportTime": false,
   "result": "Actual events match at least one expected.",
   "resultClose": "Connection was properly closed",
   "rxFrameStats": {
      "8": 1
   },
   "rxOctetStats": {
      "2": 1,
      "129": 1
   },
   "started": "2023-08-16T08:59:18.751Z",
   "trafficStats": null,
   "txFrameStats": {
      "8": 1
   },
   "txOctetStats": {
      "8": 1,
      "240": 1
   },
   "wasClean": true,
   "wasCloseHandshakeTimeout": false,
   "wasNotCleanReason": null,
   "wasOpenHandshakeTimeout": false,
   "wasServerConnectionDropTimeout": false,
   "wirelog": [
      [
         "TO",
         [
            240,
            "474554202f20485454502f312e310d0a557365722d4167656e743a204175746f6261686e5465737453756974652f302e382e322d302e31302e390d0a486f7374 ..."
         ],
         false
      ],
      [
         "RO",
         [
            129,
            "485454502f312e312031303120537769746368696e672050726f746f636f6c730d0a557067726164653a20776562736f636b65740d0a436f6e6e656374696f6e ..."
         ]
      ],
      [
         "TF",
         [
            2,
            "0x03e7"
         ],
         8,
         true,
         0,
         "b03c7df4",
         null,
         null,
         false
      ],
      [
         "TO",
         [
            8,
            "8882b03c7df4b3db"
         ],
         false
      ],
      [
         "KL",
         1
      ],
      [
         "RO",
         [
            2,
            "8800"
         ]
      ],
      [
         "RF",
         [
            0,
            ""
         ],
         8,
         true,
         0,
         false,
         null
      ]
   ]
}