{
   "agent": "Tungstenite",
   "behavior": "OK",
   "behaviorClose": "OK",
   "case": 36,
   "closedByMe": false,
   "createStats": true,
   "createWirelog": true,
   "description": "Send frame with reserved non-control <b>Opcode = 4</b> and non-empty payload.",
   "droppedByMe": false,
   "duration": 0,
   "expectation": "The connection is failed immediately.",
   "expected": {
      "OK": []
   },
   "expectedClose": {
      "closeCode": [
         1002
      ],
      "closedByMe": false,
      "requireClean": false
   },
   "failedByMe": false,
   "httpRequest": "GET / HTTP/1.1\r\nUser-Agent: AutobahnTestSuite/0.8.2-0.10.9\r\nHost: 127.0.0.1:9002\r\nUpgrade: WebSocket\r\nConnection: Upgrade\r\nPragma: no-cache\r\nCache-Control: no-cache\r\nSec-WebSocket-Key: UT2OEqt8GuxqBiVq+bT6rg==\r\nSec-WebSocket-Version: 13\r\n\r\n",
   "httpResponse": "HTTP/1.1 101 Switching Protocols\r\nUpgrade: websocket\r\nConnection: Upgrade\r\nSec-WebSocket-Accept: W9eYujxBJg3BHENlMeDXetTaZQM=\r\n\r\n",
   "id": "4.1.2",
   "isServer": false,
   "localCloseCode": 1000,
   "localCloseReason": null,
   "received": [],
   "remoteCloseCode": 1002,
   "remoteCloseReason": null,
   "reportCompressionRatio": false,
   "reportTime": false,
   "result": "Actual events match at least one expected.",
   "resultClose": "Connection was properly closed",
   "rxFrameStats": {
      "8": 1
   },
   "rxOctetStats": {
      "4": 1,
      "129": 1
   },
   "started": "2023-08-16T08:59:08.074Z",
   "trafficStats": null,
   "txFrameStats": {
      "4": 1,
      "8": 1
   },
   "txOctetStats": {
      "8": 1,
      "29": 1,
      "240": 1
   },
   "wasClean": true,
   "wasCloseHandshakeTimeout": false,
   "wasNotCleanReason": null,
   "wasOpenHandshakeTimeout": false,
   "wasServerConnectionDropTimeout": false,
   "wirelog": [
      [
         "TO",
         [
            240,
            "474554202f20485454502f312e310d0a557365722d4167656e743a204175746f6261686e5465737453756974652f302e382e322d302e31302e390d0a486f7374 ..."
         ],
         false
      ],
      [
         "RO",
         [
            129,
            "485454502f312e312031303120537769746368696e672050726f746f636f6c730d0a557067726164653a20776562736f636b65740d0a436f6e6e656374696f6e ..."
         ]
      ],
      [
         "TF",
         [
            23,
            "reserved opcode payload"
         ],
         4,
         true,
         0,
         "a3dbe206",
         null,
         null,
         false
      ],
      [
         "TO",
         [
            29,
            "8497a3dbe206d1be9163d1ad876283b49265ccbf8726d3ba9b6accba86"
         ],
         false
      ],
      [
         "KL",
         1
      ],
      [
         "RO",
         [
            4,
            "880203ea"
         ]
      ],
      [
         "RF",
         [
            2,
            "0x03ea"
         ],
         8,
         true,
         0,
         false,
         null
      ],
      [
         "TF",
         [
            2,
            "0x03e8"
         ],
         8,
         true,
         0,
         "e2aadcfc",
         null,
         null,
         false
      ],
      [
         "TO",
         [
            8,
            "8882e2aadcfce142"
         ],
         false
      ]
   ]
}