{
   "agent": "Tungstenite",
   "behavior": "OK",
   "behaviorClose": "OK",
   "case": 221,
   "closedByMe": true,
   "createStats": true,
   "createWirelog": true,
   "description": "Send a close frame with close code and close reason which is too long (124) - total frame payload 126 octets",
   "droppedByMe": false,
   "duration": 1,
   "expectation": "Clean close with protocol error code or dropped TCP connection.",
   "expected": {
      "OK": []
   },
   "expectedClose": {
      "closeCode": [
         1002
      ],
      "closedByMe": true,
      "requireClean": false
   },
   "failedByMe": false,
   "httpRequest": "GET / HTTP/1.1\r\nUser-Agent: AutobahnTestSuite/0.8.2-0.10.9\r\nHost: 127.0.0.1:9002\r\nUpgrade: WebSocket\r\nConnection: Upgrade\r\nPragma: no-cache\r\nCache-Control: no-cache\r\nSec-WebSocket-Key: GO6m1V/Qk7QGT8RSpPz97Q==\r\nSec-WebSocket-Version: 13\r\n\r\n",
   "httpResponse": "HTTP/1.1 101 Switching Protocols\r\nUpgrade: websocket\r\nConnection: Upgrade\r\nSec-WebSocket-Accept: b8nMAXcpH1/xTqe5cpTAlU2jBAo=\r\n\r\n",
   "id": "7.3.6",
   "isServer": false,
   "localCloseCode": 1000,
   "localCloseReason": "****************************************************************************************************************************",
   "received": [],
   "remoteCloseCode": 1002,
   "remoteCloseReason": null,
   "reportCompressionRatio": false,
   "reportTime": false,
   "result": "Actual events match at least one expected.",
   "resultClose": "Connection was properly closed",
   "rxFrameStats": {
      "8": 1
   },
   "rxOctetStats": {
      "4": 1,
      "129": 1
   },
   "started": "2023-08-16T08:59:18.727Z",
   "trafficStats": null,
   "txFrameStats": {
      "8": 1
   },
   "txOctetStats": {
      "134": 1,
      "240": 1
   },
   "wasClean": true,
   "wasCloseHandshakeTimeout": false,
   "wasNotCleanReason": null,
   "wasOpenHandshakeTimeout": false,
   "wasServerConnectionDropTimeout": false,
   "wirelog": [
      [
         "TO",
         [
            240,
            "474554202f20485454502f312e310d0a557365722d4167656e743a204175746f6261686e5465737453756974652f302e382e322d302e31302e390d0a486f7374 ..."
         ],
         false
      ],
      [
         "RO",
         [
            129,
            "485454502f312e312031303120537769746368696e672050726f746f636f6c730d0a557067726164653a20776562736f636b65740d0a436f6e6e656374696f6e ..."
         ]
      ],
      [
         "TF",
         [
            126,
            "0x03e82a2a2a2a2a2a2a2a2a2a2a2a2a2a2a2a2a2a2a2a2a2a2a2a2a2a2a2a2a2a2a2a2a2a2a2a2a2a2a2a2a2a2a2a2a2a2a2a2a2a2a2a2a2a2a2a2a2a2a2a2a2a ..."
         ],
         8,
         true,
         0,
         "cefbf775",
         null,
         null,
         false
      ],
      [
         "TO",
         [
            134,
            "88fe007ecefbf775cd13dd5fe4d1dd5fe4d1dd5fe4d1dd5fe4d1dd5fe4d1dd5fe4d1dd5fe4d1dd5fe4d1dd5fe4d1dd5fe4d1dd5fe4d1dd5fe4d1dd5fe4d1dd5f ..."
         ],
         false
      ],
      [
         "KL",
         1
      ],
      [
         "RO",
         [
            4,
            "880203ea"
         ]
      ],
      [
         "RF",
         [
            2,
            "0x03ea"
         ],
         8,
         true,
         0,
         false,
         null
      ]
   ]
}