{
   "agent": "Tungstenite",
   "behavior": "OK",
   "behaviorClose": "OK",
   "case": 42,
   "closedByMe": false,
   "createStats": true,
   "createWirelog": true,
   "description": "Send small text message, then send frame with reserved control <b>Opcode = 13</b>, then send Ping.",
   "droppedByMe": false,
   "duration": 1,
   "expectation": "Echo for first message is received, but then connection is failed immediately, since reserved opcode frame is used. A Pong is not received.",
   "expected": {
      "NON-STRICT": [],
      "OK": [
         [
            "message",
            "Hello, world!",
            false
         ]
      ]
   },
   "expectedClose": {
      "closeCode": [
         1002
      ],
      "closedByMe": false,
      "requireClean": false
   },
   "failedByMe": false,
   "httpRequest": "GET / HTTP/1.1\r\nUser-Agent: AutobahnTestSuite/0.8.2-0.10.9\r\nHost: 127.0.0.1:9002\r\nUpgrade: WebSocket\r\nConnection: Upgrade\r\nPragma: no-cache\r\nCache-Control: no-cache\r\nSec-WebSocket-Key: Vk/BcM9MaZ8SCz4ezO3zqQ==\r\nSec-WebSocket-Version: 13\r\n\r\n",
   "httpResponse": "HTTP/1.1 101 Switching Protocols\r\nUpgrade: websocket\r\nConnection: Upgrade\r\nSec-WebSocket-Accept: FgUru1NTx4gg4x6zRpc+/b8WFQ8=\r\n\r\n",
   "id": "4.2.3",
   "isServer": false,
   "localCloseCode": null,
   "localCloseReason": null,
   "received": [
      [
         "message",
         "Hello, world!",
         false
      ]
   ],
   "remoteCloseCode": null,
   "remoteCloseReason": null,
   "reportCompressionRatio": false,
   "reportTime": false,
   "result": "Actual events match at least one expected.",
   "resultClose": "Connection was properly closed",
   "rxFrameStats": {
      "1": 1
   },
   "rxOctetStats": {
      "15": 1,
      "129": 1
   },
   "started": "2023-08-16T08:59:08.085Z",
   "trafficStats": null,
   "txFrameStats": {
      "1": 1,
      "9": 1,
      "13": 1
   },
   "txOctetStats": {
      "6": 2,
      "19": 1,
      "240": 1
   },
   "wasClean": false,
   "wasCloseHandshakeTimeout": false,
   "wasNotCleanReason": "peer dropped the TCP connection without previous WebSocket closing handshake",
   "wasOpenHandshakeTimeout": false,
   "wasServerConnectionDropTimeout": false,
   "wirelog": [
      [
         "TO",
         [
            240,
            "474554202f20485454502f312e310d0a557365722d4167656e743a204175746f6261686e5465737453756974652f302e382e322d302e31302e390d0a486f7374 ..."
         ],
         false
      ],
      [
         "RO",
         [
            129,
            "485454502f312e312031303120537769746368696e672050726f746f636f6c730d0a557067726164653a20776562736f636b65740d0a436f6e6e656374696f6e ..."
         ]
      ],
      [
         "TF",
         [
            13,
            "Hello, world!"
         ],
         1,
         true,
         0,
         "b8f8690f",
         null,
         null,
         false
      ],
      [
         "TO",
         [
            19,
            "818db8f8690ff09d0563d7d44978d78a056b99"
         ],
         false
      ],
      [
         "TF",
         [
            0,
            ""
         ],
         13,
         true,
         0,
         "a6a67014",
         null,
         null,
         false
      ],
      [
         "TO",
         [
            6,
            "8d80a6a67014"
         ],
         false
      ],
      [
         "TF",
         [
            0,
            ""
         ],
         9,
         true,
         0,
         "4133681b",
         null,
         null,
         false
      ],
      [
         "TO",
         [
            6,
            "89804133681b"
         ],
         false
      ],
      [
         "KL",
         1
      ],
      [
         "RO",
         [
            15,
            "810d48656c6c6f2c20776f726c6421"
         ]
      ],
      [
         "RF",
         [
            13,
            "Hello, world!"
         ],
         1,
         true,
         0,
         false,
         null
      ]
   ]
}