{
   "agent": "Tungstenite",
   "behavior": "OK",
   "behaviorClose": "OK",
   "case": 27,
   "closedByMe": true,
   "createStats": true,
   "createWirelog": true,
   "description": "Send 10 Pings with payload. Send out octets in octet-wise chops.",
   "droppedByMe": false,
   "duration": 34,
   "expectation": "Pongs for our Pings with all the payloads. Note: This is not required by the Spec .. but we check for this behaviour anyway. Clean close with normal code.",
   "expected": {
      "OK": [
         [
            "pong",
            "payload-0"
         ],
         [
            "pong",
            "payload-1"
         ],
         [
            "pong",
            "payload-2"
         ],
         [
            "pong",
            "payload-3"
         ],
         [
            "pong",
            "payload-4"
         ],
         [
            "pong",
            "payload-5"
         ],
         [
            "pong",
            "payload-6"
         ],
         [
            "pong",
            "payload-7"
         ],
         [
            "pong",
            "payload-8"
         ],
         [
            "pong",
            "payload-9"
         ]
      ]
   },
   "expectedClose": {
      "closeCode": [
         1000
      ],
      "closedByMe": true,
      "requireClean": true
   },
   "failedByMe": false,
   "httpRequest": "GET / HTTP/1.1\r\nUser-Agent: AutobahnTestSuite/0.8.2-0.10.9\r\nHost: 127.0.0.1:9002\r\nUpgrade: WebSocket\r\nConnection: Upgrade\r\nPragma: no-cache\r\nCache-Control: no-cache\r\nSec-WebSocket-Key: urJs8ALcLcYZp4oerr88nA==\r\nSec-WebSocket-Version: 13\r\n\r\n",
   "httpResponse": "HTTP/1.1 101 Switching Protocols\r\nUpgrade: websocket\r\nConnection: Upgrade\r\nSec-WebSocket-Accept: WZmBE3DeOXTEWakkRiTYl233GO8=\r\n\r\n",
   "id": "2.11",
   "isServer": false,
   "localCloseCode": 1000,
   "localCloseReason": null,
   "received": [
      [
         "pong",
         "payload-0"
      ],
      [
         "pong",
         "payload-1"
      ],
      [
         "pong",
         "payload-2"
      ],
      [
         "pong",
         "payload-3"
      ],
      [
         "pong",
         "payload-4"
      ],
      [
         "pong",
         "payload-5"
      ],
      [
         "pong",
         "payload-6"
      ],
      [
         "pong",
         "payload-7"
      ],
      [
         "pong",
         "payload-8"
      ],
      [
         "pong",
         "payload-9"
      ]
   ],
   "remoteCloseCode": null,
   "remoteCloseReason": null,
   "reportCompressionRatio": false,
   "reportTime": false,
   "result": "Actual events match at least one expected.",
   "resultClose": "Connection was properly closed",
   "rxFrameStats": {
      "8": 1,
      "10": 10
   },
   "rxOctetStats": {
      "2": 1,
      "11": 10,
      "129": 1
   },
   "started": "2023-08-16T08:59:08.023Z",
   "trafficStats": null,
   "txFrameStats": {
      "8": 1,
      "9": 10
   },
   "txOctetStats": {
      "1": 150,
      "8": 1,
      "240": 1
   },
   "wasClean": true,
   "wasCloseHandshakeTimeout": false,
   "wasNotCleanReason": null,
   "wasOpenHandshakeTimeout": false,
   "wasServerConnectionDropTimeout": false,
   "wirelog": [
      [
         "TO",
         [
            240,
            "474554202f20485454502f312e310d0a557365722d4167656e743a204175746f6261686e5465737453756974652f302e382e322d302e31302e390d0a486f7374 ..."
         ],
         false
      ],
      [
         "RO",
         [
            129,
            "485454502f312e312031303120537769746368696e672050726f746f636f6c730d0a557067726164653a20776562736f636b65740d0a436f6e6e656374696f6e ..."
         ]
      ],
      [
         "TF",
         [
            9,
            "payload-0"
         ],
         9,
         true,
         0,
         "fcabf872",
         null,
         1,
         false
      ],
      [
         "TO",
         [
            1,
            "89"
         ],
         true
      ],
      [
         "TF",
         [
            9,
            "payload-1"
         ],
         9,
         true,
         0,
         "1591119b",
         null,
         1,
         false
      ],
      [
         "TF",
         [
            9,
            "payload-2"
         ],
         9,
         true,
         0,
         "40eaff43",
         null,
         1,
         false
      ],
      [
         "TF",
         [
            9,
            "payload-3"
         ],
         9,
         true,
         0,
         "f83d7c61",
         null,
         1,
         false
      ],
      [
         "TF",
         [
            9,
            "payload-4"
         ],
         9,
         true,
         0,
         "cc2f7c38",
         null,
         1,
         false
      ],
      [
         "TF",
         [
            9,
            "payload-5"
         ],
         9,
         true,
         0,
         "64e8e4d8",
         null,
         1,
         false
      ],
      [
         "TF",
         [
            9,
            "payload-6"
         ],
         9,
         true,
         0,
         "135de97a",
         null,
         1,
         false
      ],
      [
         "TF",
         [
            9,
            "payload-7"
         ],
         9,
         true,
         0,
         "22bfea18",
         null,
         1,
         false
      ],
      [
         "TF",
         [
            9,
            "payload-8"
         ],
         9,
         true,
         0,
         "cc21db48",
         null,
         1,
         false
      ],
      [
         "TF",
         [
            9,
            "payload-9"
         ],
         9,
         true,
         0,
         "64fdacab",
         null,
         1,
         false
      ],
      [
         "TI",
         3
      ],
      [
         "TO",
         [
            1,
            "89"
         ],
         true
      ],
      [
         "TO",
         [
            1,
            "fc"
         ],
         true
      ],
      [
         "TO",
         [
            1,
            "ab"
         ],
         true
      ],
      [
         "TO",
         [
            1,
            "f8"
         ],
         true
      ],
      [
         "TO",
         [
            1,
            "72"
         ],
         true
      ],
      [
         "TO",
         [
            1,
            "8c"
         ],
         true
      ],
      [
         "TO",
         [
            1,
            "ca"
         ],
         true
      ],
      [
         "TO",
         [
            1,
            "81"
         ],
         true
      ],
      [
         "TO",
         [
            1,
            "1e"
         ],
         true
      ],
      [
         "TO",
         [
            1,
            "93"
         ],
         true
      ],
      [
         "TO",
         [
            1,
            "ca"
         ],
         true
      ],
      [
         "TO",
         [
            1,
            "9c"
         ],
         true
      ],
      [
         "TO",
         [
            1,
            "5f"
         ],
         true
      ],
      [
         "TO",
         [
            1,
            "cc"
         ],
         true
      ],
      [
         "TO",
         [
            1,
            "89"
         ],
         true
      ],
      [
         "RO",
         [
            11,
            "8a097061796c6f61642d30"
         ]
      ],
      [
         "RF",
         [
            9,
            "payload-0"
         ],
         10,
         true,
         0,
         false,
         null
      ],
      [
         "TO",
         [
            1,
            "89"
         ],
         true
      ],
      [
         "TO",
         [
            1,
            "15"
         ],
         true
      ],
      [
         "TO",
         [
            1,
            "91"
         ],
         true
      ],
      [
         "TO",
         [
            1,
            "11"
         ],
         true
      ],
      [
         "TO",
         [
            1,
            "9b"
         ],
         true
      ],
      [
         "TO",
         [
            1,
            "65"
         ],
         true
      ],
      [
         "TO",
         [
            1,
            "f0"
         ],
         true
      ],
      [
         "TO",
         [
            1,
            "68"
         ],
         true
      ],
      [
         "TO",
         [
            1,
            "f7"
         ],
         true
      ],
      [
         "TO",
         [
            1,
            "7a"
         ],
         true
      ],
      [
         "TO",
         [
            1,
            "f0"
         ],
         true
      ],
      [
         "TO",
         [
            1,
            "75"
         ],
         true
      ],
      [
         "TO",
         [
            1,
            "b6"
         ],
         true
      ],
      [
         "TO",
         [
            1,
            "24"
         ],
         true
      ],
      [
         "TO",
         [
            1,
            "89"
         ],
         true
      ],
      [
         "RO",
         [
            11,
            "8a097061796c6f61642d31"
         ]
      ],
      [
         "RF",
         [
            9,
            "payload-1"
         ],
         10,
         true,
         0,
         false,
         null
      ],
      [
         "TO",
         [
            1,
            "89"
         ],
         true
      ],
      [
         "TO",
         [
            1,
            "40"
         ],
         true
      ],
      [
         "TO",
         [
            1,
            "ea"
         ],
         true
      ],
      [
         "TO",
         [
            1,
            "ff"
         ],
         true
      ],
      [
         "TO",
         [
            1,
            "43"
         ],
         true
      ],
      [
         "TO",
         [
            1,
            "30"
         ],
         true
      ],
      [
         "TO",
         [
            1,
            "8b"
         ],
         true
      ],
      [
         "TO",
         [
            1,
            "86"
         ],
         true
      ],
      [
         "TO",
         [
            1,
            "2f"
         ],
         true
      ],
      [
         "TO",
         [
            1,
            "2f"
         ],
         true
      ],
      [
         "TO",
         [
            1,
            "8b"
         ],
         true
      ],
      [
         "TO",
         [
            1,
            "9b"
         ],
         true
      ],
      [
         "TO",
         [
            1,
            "6e"
         ],
         true
      ],
      [
         "TO",
         [
            1,
            "72"
         ],
         true
      ],
      [
         "TO",
         [
            1,
            "89"
         ],
         true
      ],
      [
         "RO",
         [
            11,
            "8a097061796c6f61642d32"
         ]
      ],
      [
         "RF",
         [
            9,
            "payload-2"
         ],
         10,
         true,
         0,
         false,
         null
      ],
      [
         "TO",
         [
            1,
            "89"
         ],
         true
      ],
      [
         "TO",
         [
            1,
            "f8"
         ],
         true
      ],
      [
         "TO",
         [
            1,
            "3d"
         ],
         true
      ],
      [
         "TO",
         [
            1,
            "7c"
         ],
         true
      ],
      [
         "TO",
         [
            1,
            "61"
         ],
         true
      ],
      [
         "TO",
         [
            1,
            "88"
         ],
         true
      ],
      [
         "TO",
         [
            1,
            "5c"
         ],
         true
      ],
      [
         "TO",
         [
            1,
            "05"
         ],
         true
      ],
      [
         "TO",
         [
            1,
            "0d"
         ],
         true
      ],
      [
         "TO",
         [
            1,
            "97"
         ],
         true
      ],
      [
         "TO",
         [
            1,
            "5c"
         ],
         true
      ],
      [
         "TO",
         [
            1,
            "18"
         ],
         true
      ],
      [
         "TO",
         [
            1,
            "4c"
         ],
         true
      ],
      [
         "TO",
         [
            1,
            "cb"
         ],
         true
      ],
      [
         "TO",
         [
            1,
            "89"
         ],
         true
      ],
      [
         "RO",
         [
            11,
            "8a097061796c6f61642d33"
         ]
      ],
      [
         "RF",
         [
            9,
            "payload-3"
         ],
         10,
         true,
         0,
         false,
         null
      ],
      [
         "TO",
         [
            1,
            "89"
         ],
         true
      ],
      [
         "TO",
         [
            1,
            "cc"
         ],
         true
      ],
      [
         "TO",
         [
            1,
            "2f"
         ],
         true
      ],
      [
         "TO",
         [
            1,
            "7c"
         ],
         true
      ],
      [
         "TO",
         [
            1,
            "38"
         ],
         true
      ],
      [
         "TO",
         [
            1,
            "bc"
         ],
         true
      ],
      [
         "TO",
         [
            1,
            "4e"
         ],
         true
      ],
      [
         "TO",
         [
            1,
            "05"
         ],
         true
      ],
      [
         "TO",
         [
            1,
            "54"
         ],
         true
      ],
      [
         "TO",
         [
            1,
            "a3"
         ],
         true
      ],
      [
         "TO",
         [
            1,
            "4e"
         ],
         true
      ],
      [
         "TO",
         [
            1,
            "18"
         ],
         true
      ],
      [
         "TO",
         [
            1,
            "15"
         ],
         true
      ],
      [
         "TO",
         [
            1,
            "f8"
         ],
         true
      ],
      [
         "TO",
         [
            1,
            "89"
         ],
         true
      ],
      [
         "RO",
         [
            11,
            "8a097061796c6f61642d34"
         ]
      ],
      [
         "RF",
         [
            9,
            "payload-4"
         ],
         10,
         true,
         0,
         false,
         null
      ],
      [
         "TO",
         [
            1,
            "89"
         ],
         true
      ],
      [
         "TO",
         [
            1,
            "64"
         ],
         true
      ],
      [
         "TO",
         [
            1,
            "e8"
         ],
         true
      ],
      [
         "TO",
         [
            1,
            "e4"
         ],
         true
      ],
      [
         "TO",
         [
            1,
            "d8"
         ],
         true
      ],
      [
         "TO",
         [
            1,
            "14"
         ],
         true
      ],
      [
         "TO",
         [
            1,
            "89"
         ],
         true
      ],
      [
         "TO",
         [
            1,
            "9d"
         ],
         true
      ],
      [
         "TO",
         [
            1,
            "b4"
         ],
         true
      ],
      [
         "TO",
         [
            1,
            "0b"
         ],
         true
      ],
      [
         "TO",
         [
            1,
            "89"
         ],
         true
      ],
      [
         "TO",
         [
            1,
            "80"
         ],
         true
      ],
      [
         "TO",
         [
            1,
            "f5"
         ],
         true
      ],
      [
         "TO",
         [
            1,
            "51"
         ],
         true
      ],
      [
         "TO",
         [
            1,
            "89"
         ],
         true
      ],
      [
         "RO",
         [
            11,
            "8a097061796c6f61642d35"
         ]
      ],
      [
         "RF",
         [
            9,
            "payload-5"
         ],
         10,
         true,
         0,
         false,
         null
      ],
      [
         "TO",
         [
            1,
            "89"
         ],
         true
      ],
      [
         "TO",
         [
            1,
            "13"
         ],
         true
      ],
      [
         "TO",
         [
            1,
            "5d"
         ],
         true
      ],
      [
         "TO",
         [
            1,
            "e9"
         ],
         true
      ],
      [
         "TO",
         [
            1,
            "7a"
         ],
         true
      ],
      [
         "TO",
         [
            1,
            "63"
         ],
         true
      ],
      [
         "TO",
         [
            1,
            "3c"
         ],
         true
      ],
      [
         "TO",
         [
            1,
            "90"
         ],
         true
      ],
      [
         "TO",
         [
            1,
            "16"
         ],
         true
      ],
      [
         "TO",
         [
            1,
            "7c"
         ],
         true
      ],
      [
         "TO",
         [
            1,
            "3c"
         ],
         true
      ],
      [
         "TO",
         [
            1,
            "8d"
         ],
         true
      ],
      [
         "TO",
         [
            1,
            "57"
         ],
         true
      ],
      [
         "TO",
         [
            1,
            "25"
         ],
         true
      ],
      [
         "TO",
         [
            1,
            "89"
         ],
         true
      ],
      [
         "RO",
         [
            11,
            "8a097061796c6f61642d36"
         ]
      ],
      [
         "RF",
         [
            9,
            "payload-6"
         ],
         10,
         true,
         0,
         false,
         null
      ],
      [
         "TO",
         [
            1,
            "89"
         ],
         true
      ],
      [
         "TO",
         [
            1,
            "22"
         ],
         true
      ],
      [
         "TO",
         [
            1,
            "bf"
         ],
         true
      ],
      [
         "TO",
         [
            1,
            "ea"
         ],
         true
      ],
      [
         "TO",
         [
            1,
            "18"
         ],
         true
      ],
      [
         "TO",
         [
            1,
            "52"
         ],
         true
      ],
      [
         "TO",
         [
            1,
            "de"
         ],
         true
      ],
      [
         "TO",
         [
            1,
            "93"
         ],
         true
      ],
      [
         "TO",
         [
            1,
            "74"
         ],
         true
      ],
      [
         "TO",
         [
            1,
            "4d"
         ],
         true
      ],
      [
         "TO",
         [
            1,
            "de"
         ],
         true
      ],
      [
         "TO",
         [
            1,
            "8e"
         ],
         true
      ],
      [
         "TO",
         [
            1,
            "35"
         ],
         true
      ],
      [
         "TO",
         [
            1,
            "15"
         ],
         true
      ],
      [
         "TO",
         [
            1,
            "89"
         ],
         true
      ],
      [
         "RO",
         [
            11,
            "8a097061796c6f61642d37"
         ]
      ],
      [
         "RF",
         [
            9,
            "payload-7"
         ],
         10,
         true,
         0,
         false,
         null
      ],
      [
         "TO",
         [
            1,
            "89"
         ],
         true
      ],
      [
         "TO",
         [
            1,
            "cc"
         ],
         true
      ],
      [
         "TO",
         [
            1,
            "21"
         ],
         true
      ],
      [
         "TO",
         [
            1,
            "db"
         ],
         true
      ],
      [
         "TO",
         [
            1,
            "48"
         ],
         true
      ],
      [
         "TO",
         [
            1,
            "bc"
         ],
         true
      ],
      [
         "TO",
         [
            1,
            "40"
         ],
         true
      ],
      [
         "TO",
         [
            1,
            "a2"
         ],
         true
      ],
      [
         "TO",
         [
            1,
            "24"
         ],
         true
      ],
      [
         "TO",
         [
            1,
            "a3"
         ],
         true
      ],
      [
         "TO",
         [
            1,
            "40"
         ],
         true
      ],
      [
         "TO",
         [
            1,
            "bf"
         ],
         true
      ],
      [
         "TO",
         [
            1,
            "65"
         ],
         true
      ],
      [
         "TO",
         [
            1,
            "f4"
         ],
         true
      ],
      [
         "TO",
         [
            1,
            "89"
         ],
         true
      ],
      [
         "RO",
         [
            11,
            "8a097061796c6f61642d38"
         ]
      ],
      [
         "RF",
         [
            9,
            "payload-8"
         ],
         10,
         true,
         0,
         false,
         null
      ],
      [
         "TO",
         [
            1,
            "89"
         ],
         true
      ],
      [
         "TO",
         [
            1,
            "64"
         ],
         true
      ],
      [
         "TO",
         [
            1,
            "fd"
         ],
         true
      ],
      [
         "TO",
         [
            1,
            "ac"
         ],
         true
      ],
      [
         "TO",
         [
            1,
            "ab"
         ],
         true
      ],
      [
         "TO",
         [
            1,
            "14"
         ],
         true
      ],
      [
         "TO",
         [
            1,
            "9c"
         ],
         true
      ],
      [
         "TO",
         [
            1,
            "d5"
         ],
         true
      ],
      [
         "TO",
         [
            1,
            "c7"
         ],
         true
      ],
      [
         "TO",
         [
            1,
            "0b"
         ],
         true
      ],
      [
         "TO",
         [
            1,
            "9c"
         ],
         true
      ],
      [
         "TO",
         [
            1,
            "c8"
         ],
         true
      ],
      [
         "TO",
         [
            1,
            "86"
         ],
         true
      ],
      [
         "TO",
         [
            1,
            "5d"
         ],
         true
      ],
      [
         "RO",
         [
            11,
            "8a097061796c6f61642d39"
         ]
      ],
      [
         "RF",
         [
            9,
            "payload-9"
         ],
         10,
         true,
         0,
         false,
         null
      ],
      [
         "TF",
         [
            2,
            "0x03e8"
         ],
         8,
         true,
         0,
         "0c5864b1",
         null,
         null,
         false
      ],
      [
         "TO",
         [
            8,
            "88820c5864b10fb0"
         ],
         false
      ],
      [
         "RO",
         [
            2,
            "8800"
         ]
      ],
      [
         "RF",
         [
            0,
            ""
         ],
         8,
         true,
         0,
         false,
         null
      ]
   ]
}